EESchema Schematic File Version 2
LIBS:power
LIBS:device
LIBS:transistors
LIBS:conn
LIBS:linear
LIBS:regul
LIBS:74xx
LIBS:cmos4000
LIBS:adc-dac
LIBS:memory
LIBS:xilinx
LIBS:microcontrollers
LIBS:dsp
LIBS:microchip
LIBS:analog_switches
LIBS:motorola
LIBS:texas
LIBS:intel
LIBS:audio
LIBS:interface
LIBS:digital-audio
LIBS:philips
LIBS:display
LIBS:cypress
LIBS:siliconi
LIBS:opto
LIBS:atmel
LIBS:contrib
LIBS:valves
LIBS:my-microcontrollers
LIBS:Memory_Flash
EELAYER 25 0
EELAYER END
$Descr A4 11693 8268
encoding utf-8
Sheet 1 1
Title ""
Date ""
Rev ""
Comp ""
Comment1 ""
Comment2 ""
Comment3 ""
Comment4 ""
$EndDescr
$Comp
L arduino_nano U1
U 1 1 5F05986A
P 3800 3350
F 0 "U1" H 4100 2300 70  0000 C CNN
F 1 "arduino_nano" H 4100 2550 70  0000 C CNN
F 2 "DIL30" H 4100 3300 60  0000 C CNN
F 3 "" H 3800 3350 60  0000 C CNN
	1    3800 3350
	1    0    0    -1  
$EndComp
$Comp
L W25Q32JVSS U2
U 1 1 5F05993E
P 6700 3500
F 0 "U2" H 6350 3850 50  0000 C CNN
F 1 "W25Q128" H 7000 3100 50  0000 C CNN
F 2 "Package_SO:SOIC-8_5.23x5.23mm_P1.27mm" H 6700 3500 50  0001 C CNN
F 3 "" H 6700 3500 50  0001 C CNN
	1    6700 3500
	1    0    0    -1  
$EndComp
$Comp
L +3.3V #PWR1
U 1 1 5F05997D
P 2900 2300
F 0 "#PWR1" H 2900 2150 50  0001 C CNN
F 1 "+3.3V" H 2900 2440 50  0000 C CNN
F 2 "" H 2900 2300 50  0000 C CNN
F 3 "" H 2900 2300 50  0000 C CNN
	1    2900 2300
	1    0    0    -1  
$EndComp
Wire Wire Line
	2900 2300 2900 2650
Wire Wire Line
	2900 2650 3100 2650
$Comp
L +3.3V #PWR4
U 1 1 5F059999
P 6700 2900
F 0 "#PWR4" H 6700 2750 50  0001 C CNN
F 1 "+3.3V" H 6700 3040 50  0000 C CNN
F 2 "" H 6700 2900 50  0000 C CNN
F 3 "" H 6700 2900 50  0000 C CNN
	1    6700 2900
	1    0    0    -1  
$EndComp
Wire Wire Line
	6700 2900 6700 3000
Wire Wire Line
	6700 3000 6700 3100
$Comp
L GND #PWR2
U 1 1 5F0599B9
P 3000 4700
F 0 "#PWR2" H 3000 4450 50  0001 C CNN
F 1 "GND" H 3000 4550 50  0000 C CNN
F 2 "" H 3000 4700 50  0000 C CNN
F 3 "" H 3000 4700 50  0000 C CNN
	1    3000 4700
	1    0    0    -1  
$EndComp
Wire Wire Line
	3100 4450 3000 4450
Wire Wire Line
	3000 4450 3000 4700
$Comp
L GND #PWR5
U 1 1 5F0599DA
P 6700 4000
F 0 "#PWR5" H 6700 3750 50  0001 C CNN
F 1 "GND" H 6700 3850 50  0000 C CNN
F 2 "" H 6700 4000 50  0000 C CNN
F 3 "" H 6700 4000 50  0000 C CNN
	1    6700 4000
	1    0    0    -1  
$EndComp
Wire Wire Line
	6700 3900 6700 4000
Wire Wire Line
	6700 3000 7500 3000
Wire Wire Line
	7500 3000 7500 3600
Wire Wire Line
	7500 3600 7500 3700
Wire Wire Line
	7500 3700 7200 3700
Connection ~ 6700 3000
$Comp
L C C1
U 1 1 5F059A0C
P 7500 3950
F 0 "C1" H 7525 4050 50  0000 L CNN
F 1 "100nF" H 7525 3850 50  0000 L CNN
F 2 "" H 7538 3800 50  0000 C CNN
F 3 "" H 7500 3950 50  0000 C CNN
	1    7500 3950
	1    0    0    -1  
$EndComp
Wire Wire Line
	7500 3700 7500 3800
Wire Wire Line
	7200 3600 7500 3600
Connection ~ 7500 3600
$Comp
L GND #PWR6
U 1 1 5F059A4C
P 7500 4200
F 0 "#PWR6" H 7500 3950 50  0001 C CNN
F 1 "GND" H 7500 4050 50  0000 C CNN
F 2 "" H 7500 4200 50  0000 C CNN
F 3 "" H 7500 4200 50  0000 C CNN
	1    7500 4200
	1    0    0    -1  
$EndComp
Wire Wire Line
	7500 4200 7500 4100
Wire Wire Line
	3100 2500 3000 2500
Wire Wire Line
	3000 2500 3000 2300
Wire Wire Line
	3000 2300 5700 2300
Wire Wire Line
	5700 2300 5700 3000
Wire Wire Line
	5150 2800 5500 2800
$Comp
L R R3
U 1 1 5F059BC2
P 5700 3150
F 0 "R3" V 5780 3150 50  0000 C CNN
F 1 "470" V 5700 3150 50  0000 C CNN
F 2 "" V 5630 3150 50  0000 C CNN
F 3 "" H 5700 3150 50  0000 C CNN
	1    5700 3150
	1    0    0    -1  
$EndComp
$Comp
L R R1
U 1 1 5F059C3E
P 5500 3150
F 0 "R1" V 5580 3150 50  0000 C CNN
F 1 "470" V 5500 3150 50  0000 C CNN
F 2 "" V 5430 3150 50  0000 C CNN
F 3 "" H 5500 3150 50  0000 C CNN
	1    5500 3150
	1    0    0    -1  
$EndComp
Wire Wire Line
	5500 2800 5500 3000
Wire Wire Line
	5500 3300 5500 3400
Wire Wire Line
	5500 3400 5500 3700
$Comp
L R R2
U 1 1 5F059C9B
P 5500 3850
F 0 "R2" V 5580 3850 50  0000 C CNN
F 1 "1K" V 5500 3850 50  0000 C CNN
F 2 "" V 5430 3850 50  0000 C CNN
F 3 "" H 5500 3850 50  0000 C CNN
	1    5500 3850
	1    0    0    -1  
$EndComp
Connection ~ 5500 3400
$Comp
L GND #PWR3
U 1 1 5F059D04
P 5700 4200
F 0 "#PWR3" H 5700 3950 50  0001 C CNN
F 1 "GND" H 5700 4050 50  0000 C CNN
F 2 "" H 5700 4200 50  0000 C CNN
F 3 "" H 5700 4200 50  0000 C CNN
	1    5700 4200
	1    0    0    -1  
$EndComp
Wire Wire Line
	5500 4000 5500 4100
$Comp
L R R4
U 1 1 5F059D41
P 5700 3850
F 0 "R4" V 5780 3850 50  0000 C CNN
F 1 "1K" V 5700 3850 50  0000 C CNN
F 2 "" V 5630 3850 50  0000 C CNN
F 3 "" H 5700 3850 50  0000 C CNN
	1    5700 3850
	1    0    0    -1  
$EndComp
Wire Wire Line
	5700 3300 5700 3600
Wire Wire Line
	5700 3600 5700 3700
Wire Wire Line
	5700 3600 6200 3600
Connection ~ 5700 3600
Wire Wire Line
	5700 4000 5700 4100
Wire Wire Line
	5700 4100 5700 4200
Wire Wire Line
	5500 4100 5700 4100
Wire Wire Line
	5700 4100 5900 4100
Connection ~ 5700 4100
Wire Wire Line
	7200 3400 7400 3400
Wire Wire Line
	7400 3400 7400 2500
Wire Wire Line
	7400 2500 5150 2500
Wire Wire Line
	5500 3400 6200 3400
$Comp
L R R5
U 1 1 5F05A072
P 5900 3150
F 0 "R5" V 5980 3150 50  0000 C CNN
F 1 "470" V 5900 3150 50  0000 C CNN
F 2 "" V 5830 3150 50  0000 C CNN
F 3 "" H 5900 3150 50  0000 C CNN
	1    5900 3150
	1    0    0    -1  
$EndComp
$Comp
L R R6
U 1 1 5F05A0A6
P 5900 3850
F 0 "R6" V 5980 3850 50  0000 C CNN
F 1 "1K" V 5900 3850 50  0000 C CNN
F 2 "" V 5830 3850 50  0000 C CNN
F 3 "" H 5900 3850 50  0000 C CNN
	1    5900 3850
	1    0    0    -1  
$EndComp
Wire Wire Line
	5900 3700 5900 3500
Wire Wire Line
	5900 3500 5900 3300
Wire Wire Line
	5900 3000 5900 2650
Wire Wire Line
	5900 2650 5150 2650
Wire Wire Line
	5900 4100 5900 4000
Wire Wire Line
	5900 3500 6100 3500
Wire Wire Line
	6100 3500 6100 2550
Wire Wire Line
	6100 2550 7300 2550
Wire Wire Line
	7300 2550 7300 3300
Wire Wire Line
	7300 3300 7200 3300
Connection ~ 5900 3500
Connection ~ 7500 3700
$EndSCHEMATC
